00000000000000000000
00000000000000000000
00000000011000000000
00001111000011110000
00000330000003300000
00000000000000000000
00000000888800000000
00000000088000000000
00000000044000000000
00001111111111110000
00001212121212110000
00001121212121210000
00001111111111110000
00000000000000000000
00000000055000000000
00000000555500000000
00000000000000000000
00000066600666000000
00000069666696000000
00000066600666000000

