00022222222222220000
00022222222222220000
00022555555555220000
00022555555555220000
00022550000055220000
00022550101055220000
00022550101055220000
00022550000055220000
00022555555555220000
00022555555555220000
00022222222222220000
00022222222222220000
00000000444000000000
00000000444000000000
00000000444000000000
00044400444004440000
00040040444040040000
00040404444404040000
00004004444400400000
00000444444444000000

