52431134258967000000
52431134258967000000
52431134258967000000
52433334258967000000
52444444258967000000
52222222258967000000
55555555558967000000
88888888888967000000
99999999999967000000
66666666666667000000
77777777777777000000
00000000000000000000
00000000000000000000
00000000000000000000
00000000000000000000
00000000000000000000
00000000000000000000
00000000000000000000
00000000000000000000
00000000000000000000

