11111111111111111111
11111111111111111111
11111100000000111111
11110000000000001111
11100077777777000111
11007772222227770011
11007772222227770011
11100077777777000111
11110000000000001111
11111100000000111111
11111111144111111111
14441111144111144441
11444411144111444411
11144441144114444111
11114444144144441111
11114444144144441111
11114444144144441111
11111444444444411111
11111111444411111111
11111111111111111111

