00000000111100000000
00000111022011100000
00011000022000011000
00122000022000022100
01022002222220022010
01022222222222222010
11002220000002220011
10002200000000220001
10002200000000220001
10002200000000220001
10022200000000222001
12222222000022222221
12211111111111111221
12210001000010001221
11110001000010001111
01100001000010000110
00100000000000000100
00100000000000000100
00111000000000011100
00001111111111110000

