72727000000000000000
27272000000000000000
72727000000000000000
27272000000000099900
72727002222220099900
00000022222222229900
00000011199919033300
00000191999919993300
00000191199991999300
00000119999911111000
00000009999999930000
00033333233332300000
00333333323333200100
09933333322222200100
09990023222252521100
00901022222222221100
00011122222222221100
00111222222200000000
00100222200000000000
00000000000000000000

