00000000000000000000
00000500044000500000
00000052244225000000
00000025244252000000
00000022111122000000
00000333144133300000
00000333144133300000
00000022111122000000
00000025244252000000
00000052244225000000
00000500044000500000
00000000000000000000
00000000000000000000
00000000000000000000
00000000000000000000
00000000000000000000
00000000000000000000
00000000000000000000
00000000000000000000
00000000000000000000

